"Project","Client","Description","Time (h)","Time (decimal)","Amount (USD)"
"BICC","(Without client)","Backend Logic","02:48:00","2.8","0.0"
"BICC","(Without client)","Vue Semantic UI for table (incl. bug fixes) ","03:39:00","3.65","0.0"
"BICC","(Without client)","Barcode scanner ready","04:00:00","4.0","0.0"
"BICC","(Without client)","Fixed few Frontend bugs for pagination etc.","01:45:00","1.75","0.0"
"BICC","(Without client)","Order items and plan shopping cart technology, small first ideas with server","01:00:00","1.0","0.0"
"BICC","(Without client)","Add requests to shopping cart","02:57:00","2.95","0.0"
"BICC","(Without client)","Test notifications with existing Hassio and motion detector","03:30:00","3.5","0.0"
"BICC","(Without client)","Raspi problems with camera module, camera isn’t sharp enough for qr code, tried everything with exposure time etc. (Need to order new camera)","05:44:00","5.733333333333333","0.0"
"BICC","(Without client)","Bootstrap node server gui and more Items to add","05:00:00","5.0","0.0"
"BICC","(Without client)","Items choosable ","02:53:00","2.8833333333333333","0.0"
"BICC","(Without client)","Automatic upload script via python ","02:06:00","2.1","0.0"
"BICC","(Without client)","Upload and barcode integration ","04:32:00","4.533333333333333","0.0"
"BICC","(Without client)","Configure pi with new settings","03:00:00","3.0","0.0"
"BICC","(Without client)","Raspberry camera position testing and semantics to table bug ","02:05:00","2.0833333333333335","0.0"
"BICC","(Without client)","Api call handling in python script, multiple names for products","01:30:03","1.5008333333333332","0.0"
"BICC","(Without client)","Json request works with gitlab","01:30:37","1.5102777777777778","0.0"
"BICC","(Without client)","Table in Vue and local","01:55:00","1.9166666666666667","0.0"
"BICC","(Without client)","Changing everything to raspi and auto commit has to be fixed — still a few bugs left to fix (Same key entries possible?)","03:24:30","3.408333333333333","0.0"
"BICC","(Without client)","Local Table modifications","02:59:00","2.9833333333333334","0.0"
"BICC","(Without client)","Local Server gui changes","01:25:00","1.4166666666666667","0.0"
"BICC","(Without client)","Setting up new OS on Raspberry Pi and start writing scripts for api calls","02:00:00","2.0","0.0"
"BICC","(Without client)","Bugs Vue","01:05:00","1.0833333333333333","0.0"
"BICC","(Without client)","Vuejs with Jason","02:54:00","2.9","0.0"
"BICC","(Without client)","Edit local table with buttons to edit items and update json","03:03:00","3.05","0.0"
"BICC","(Without client)","Starting to use vue for final list","03:18:00","3.3","0.0"
"BICC","(Without client)","Get elements from js to node to Jason","03:35:47","3.596388888888889","0.0"
"BICC","(Without client)","Vue get request works, Json has to be trimmed for sensorhub recognition ","02:00:31","2.008611111111111","0.0"
"BICC","(Without client)","Tried Food APIs, OpenFoodFacts is best, but getting names is confusing","01:30:00","1.5","0.0"
"BICC","(Without client)","Put everything to raspberry and start jobs on reboot","03:00:00","3.0","0.0"
