"Project","Client","Description","Time (h)","Time (decimal)","Amount (USD)"
"UBQ","(Without client)","Sensortiles und Buttons verschoenert und AddMeasurement verbessert","06:03:00","6.05","0.0"
"UBQ","(Without client)","Session handling in vue","02:26:41","2.444722222222222","0.0"
"UBQ","(Without client)","Merging","00:35:00","0.5833333333333334","0.0"
"UBQ","(Without client)","Pumping robot","13:05:30","13.091666666666667","0.0"
"UBQ","(Without client)","Updateable sensors","03:34:53","3.5813888888888887","0.0"
"UBQ","(Without client)","sensor-hub component","08:13:46","8.229444444444445","0.0"
"UBQ","(Without client)","Vue integration","02:09:00","2.15","0.0"
"UBQ","(Without client)","Felix Vue Planning","01:00:00","1.0","0.0"
"UBQ","(Without client)","Flask","09:28:12","9.47","0.0"
"UBQ","(Without client)","Planning","03:00:00","3.0","0.0"
"UBQ","(Without client)","authentication","05:53:36","5.8933333333333335","0.0"
"UBQ","(Without client)","Notifications","04:56:54","4.948333333333333","0.0"
"UBQ","(Without client)","Understanding vue","03:44:35","3.7430555555555554","0.0"
"UBQ","(Without client)","sensor visualization, small details 9:30 angefangen","03:05:23","3.089722222222222","0.0"
"UBQ","(Without client)","Reload directects to login bug","01:30:00","1.5","0.0"
"UBQ","(Without client)","Notification modal","01:13:46","1.2294444444444443","0.0"
"UBQ","(Without client)","Sensor tiles","00:55:46","0.9294444444444444","0.0"
"UBQ","(Without client)","jwt vs session cookies, I will use JWT for VUE and possibly also for the sensor. Using env with password for sensors seems more comfortable right now","00:38:43","0.6452777777777777","0.0"
"UBQ","(Without client)","Raspi MQTT","03:49:07","3.818611111111111","0.0"
"UBQ","(Without client)","Logout functionality and dynamic sidebar","04:48:41","4.811388888888889","0.0"
"UBQ","(Without client)","flask server","01:41:57","1.6991666666666667","0.0"
"UBQ","(Without client)","Authentication with token per sensor","01:02:02","1.0338888888888889","0.0"
"UBQ","(Without client)","Token authentication","03:42:55","3.7152777777777777","0.0"
